[
    {
        "name": "\u0418\u0433\u0440\u043e\u0432\u0430\u044f \u043f\u0440\u0438\u0441\u0442\u0430\u0432\u043a\u0430 Sony playstation 2 slim (\u0442\u043e\u043d\u043a\u0430\u044f)",
        "offers": "2",
        "url": "/catalog/m366-igrovaya-pristavka-sony-playstation-2-slim-tonkaja"
    },
    {
        "name": "\u0418\u0433\u0440\u043e\u0432\u0430\u044f \u043f\u0440\u0438\u0441\u0442\u0430\u0432\u043a\u0430 Sony \u0434\u0440\u0443\u0433\u043e\u0435",
        "offers": "1",
        "url": "/catalog/m38475-igrovaya-pristavka-sony-drugoe"
    },
    {
        "name": "\u0418\u0433\u0440\u043e\u0432\u0430\u044f \u043f\u0440\u0438\u0441\u0442\u0430\u0432\u043a\u0430 Sony portable psp-e1008",
        "offers": "1",
        "url": "/catalog/m106652-igrovaya-pristavka-sony-portable-psp-e1008"
    },
    {
        "name": "\u0406\u0433\u0440\u043e\u0432\u0430 \u043f\u0440\u0438\u0441\u0442\u0430\u0432\u043a\u0430 Sony cech-3001b/hdd 320gb",
        "offers": "1",
        "url": "/catalog/m4714056-grova-pristavka-sony-cech-3001b-hdd-320gb"
    },
    {
        "name": "\u0422\u0435\u0445\u043d\u0438\u043a\u0430 \u043d\u0430\u043f\u0440\u043e\u043a\u0430\u0442",
        "offers": 0,
        "url": "prokat-tekhniki/cr1"
    },
    {
        "name": "\u0418\u0433\u0440\u043e\u0432\u0430\u044f \u043f\u0440\u0438\u0441\u0442\u0430\u0432\u043a\u0430 Xbox360 60gb",
        "offers": "1",
        "url": "/catalog/m1315-igrovaya-pristavka-xbox360-60gb"
    },
    {
        "name": "\u0406\u0433\u0440\u043e\u0432\u0430 \u043f\u0440\u0438\u0441\u0442\u0430\u0432\u043a\u0430 Sony ps 3 cech4308a 12gb",
        "offers": "1",
        "url": "/catalog/m4697603-grova-pristavka-sony-ps-3-cech4308a-12gb"
    },
    {
        "name": "\u0418\u0433\u0440\u043e\u0432\u0430\u044f \u043f\u0440\u0438\u0441\u0442\u0430\u0432\u043a\u0430 Xbox360 4gb",
        "offers": "1",
        "url": "/catalog/m41525-igrovaya-pristavka-xbox360-4gb"
    },
    {
        "name": "\u0406\u0433\u0440\u043e\u0432\u0430 \u043f\u0440\u0438\u0441\u0442\u0430\u0432\u043a\u0430 Sony ps 3 cech4008c 12gb",
        "offers": "1",
        "url": "/catalog/m4690517-grova-pristavka-sony-ps-3-cech4008c-12gb"
    },
    {
        "name": "\u0406\u0433\u0440\u043e\u0432\u0430 \u043f\u0440\u0438\u0441\u0442\u0430\u0432\u043a\u0430 Xbox360 slim 4gb",
        "offers": "2",
        "url": "/catalog/m4684639-grova-pristavka-xbox360-slim-4gb"
    },
    {
        "name": "\u0418\u0433\u0440\u043e\u0432\u0430\u044f \u043f\u0440\u0438\u0441\u0442\u0430\u0432\u043a\u0430 Xbox360 elite 250gb",
        "offers": "1",
        "url": "/catalog/m41806-igrovaya-pristavka-xbox360-elite-250gb"
    },
    {
        "name": "\u0406\u0433\u0440\u043e\u0432\u0430 \u043f\u0440\u0438\u0441\u0442\u0430\u0432\u043a\u0430 Sony ps 3 cech4204a 12gb",
        "offers": "1",
        "url": "/catalog/m4708189-grova-pristavka-sony-ps-3-cech4204a-12gb"
    },
    {
        "name": "\u0406\u0433\u0440\u043e\u0432\u0430 \u043f\u0440\u0438\u0441\u0442\u0430\u0432\u043a\u0430 Sony ps 4 cuh-1206a 500gb",
        "offers": "1",
        "url": "/catalog/m4687383-grova-pristavka-sony-ps-4-cuh-1206a-500gb"
    },
    {
        "name": "\u0418\u0433\u0440\u043e\u0432\u0430\u044f \u043f\u0440\u0438\u0441\u0442\u0430\u0432\u043a\u0430 Xbox360 one 500gb",
        "offers": "2",
        "url": "/catalog/m71112-igrovaya-pristavka-xbox360-one-500gb"
    },
    {
        "name": "\u0418\u0433\u0440\u043e\u0432\u0430\u044f \u043f\u0440\u0438\u0441\u0442\u0430\u0432\u043a\u0430 Sony ps 4 slim cuh-2016b 1000gb",
        "offers": "1",
        "url": "/catalog/m194871-igrovaya-pristavka-sony-ps-4-slim-cuh-2016b-1000gb"
    }
]